module goexperiment/app/hello

go 1.21

require (
	github.com/alibabacloud-go/darabonba-openapi/v2 v2.0.4
	github.com/alibabacloud-go/dysmsapi-20170525/v3 v3.0.6
	github.com/alibabacloud-go/tea v1.1.19
	github.com/gin-gonic/gin v1.9.1
	github.com/go-resty/resty/v2 v2.7.0
	github.com/gookit/color v1.5.4
	github.com/redis/go-redis/v9 v9.1.0
	github.com/segmentio/kafka-go v0.4.42
	github.com/spf13/viper v1.16.0
	go.uber.org/zap v1.25.0
	gopkg.in/gomail.v2 v2.0.0-20160411212932-81ebce5c23df
	gorm.io/driver/mysql v1.5.1
	gorm.io/gorm v1.25.4
	moul.io/zapgorm2 v1.3.0
)

require (
	github.com/alibabacloud-go/alibabacloud-gateway-spi v0.0.4 // indirect
	github.com/alibabacloud-go/debug v0.0.0-20190504072949-9472017b5c68 // indirect
	github.com/alibabacloud-go/endpoint-util v1.1.0 // indirect
	github.com/alibabacloud-go/openapi-util v0.1.0 // indirect
	github.com/alibabacloud-go/tea-utils v1.3.1 // indirect
	github.com/alibabacloud-go/tea-utils/v2 v2.0.3 // indirect
	github.com/alibabacloud-go/tea-xml v1.1.2 // indirect
	github.com/aliyun/credentials-go v1.1.2 // indirect
	github.com/bytedance/sonic v1.9.1 // indirect
	github.com/cespare/xxhash/v2 v2.2.0 // indirect
	github.com/chenzhuoyu/base64x v0.0.0-20221115062448-fe3a3abad311 // indirect
	github.com/clbanning/mxj/v2 v2.5.5 // indirect
	github.com/dgryski/go-rendezvous v0.0.0-20200823014737-9f7001d12a5f // indirect
	github.com/fsnotify/fsnotify v1.6.0 // indirect
	github.com/gabriel-vasile/mimetype v1.4.2 // indirect
	github.com/gin-contrib/sse v0.1.0 // indirect
	github.com/go-playground/locales v0.14.1 // indirect
	github.com/go-playground/universal-translator v0.18.1 // indirect
	github.com/go-playground/validator/v10 v10.14.0 // indirect
	github.com/go-sql-driver/mysql v1.7.0 // indirect
	github.com/goccy/go-json v0.10.2 // indirect
	github.com/hashicorp/hcl v1.0.0 // indirect
	github.com/jinzhu/inflection v1.0.0 // indirect
	github.com/jinzhu/now v1.1.5 // indirect
	github.com/json-iterator/go v1.1.12 // indirect
	github.com/klauspost/compress v1.15.11 // indirect
	github.com/klauspost/cpuid/v2 v2.2.4 // indirect
	github.com/leodido/go-urn v1.2.4 // indirect
	github.com/magiconair/properties v1.8.7 // indirect
	github.com/mattn/go-isatty v0.0.19 // indirect
	github.com/mitchellh/mapstructure v1.5.0 // indirect
	github.com/modern-go/concurrent v0.0.0-20180306012644-bacd9c7ef1dd // indirect
	github.com/modern-go/reflect2 v1.0.2 // indirect
	github.com/pelletier/go-toml/v2 v2.0.8 // indirect
	github.com/pierrec/lz4/v4 v4.1.17 // indirect
	github.com/spf13/afero v1.9.5 // indirect
	github.com/spf13/cast v1.5.1 // indirect
	github.com/spf13/jwalterweatherman v1.1.0 // indirect
	github.com/spf13/pflag v1.0.5 // indirect
	github.com/subosito/gotenv v1.4.2 // indirect
	github.com/tjfoc/gmsm v1.3.2 // indirect
	github.com/twitchyliquid64/golang-asm v0.15.1 // indirect
	github.com/ugorji/go/codec v1.2.11 // indirect
	github.com/xo/terminfo v0.0.0-20210125001918-ca9a967f8778 // indirect
	go.uber.org/multierr v1.10.0 // indirect
	golang.org/x/arch v0.3.0 // indirect
	golang.org/x/crypto v0.11.0 // indirect
	golang.org/x/net v0.10.0 // indirect
	golang.org/x/sys v0.10.0 // indirect
	golang.org/x/text v0.11.0 // indirect
	google.golang.org/protobuf v1.30.0 // indirect
	gopkg.in/alexcesaro/quotedprintable.v3 v3.0.0-20150716171945-2caba252f4dc // indirect
	gopkg.in/ini.v1 v1.67.0 // indirect
	gopkg.in/yaml.v3 v3.0.1 // indirect
)
