module goexperiment/app/pkg

go 1.21

require (
	github.com/gin-gonic/gin v1.9.1
	github.com/golang-jwt/jwt/v5 v5.0.0
	github.com/redis/go-redis/v9 v9.1.0
	github.com/rotisserie/eris v0.5.4
	go.uber.org/zap v1.25.0
	gopkg.in/natefinch/lumberjack.v2 v2.2.1
)

require (
	github.com/bytedance/sonic v1.9.1 // indirect
	github.com/cespare/xxhash/v2 v2.2.0 // indirect
	github.com/chenzhuoyu/base64x v0.0.0-20221115062448-fe3a3abad311 // indirect
	github.com/dgryski/go-rendezvous v0.0.0-20200823014737-9f7001d12a5f // indirect
	github.com/gabriel-vasile/mimetype v1.4.2 // indirect
	github.com/gin-contrib/sse v0.1.0 // indirect
	github.com/go-playground/locales v0.14.1 // indirect
	github.com/go-playground/universal-translator v0.18.1 // indirect
	github.com/go-playground/validator/v10 v10.14.0 // indirect
	github.com/goccy/go-json v0.10.2 // indirect
	github.com/google/go-cmp v0.5.9 // indirect
	github.com/json-iterator/go v1.1.12 // indirect
	github.com/klauspost/cpuid/v2 v2.2.4 // indirect
	github.com/leodido/go-urn v1.2.4 // indirect
	github.com/mattn/go-isatty v0.0.19 // indirect
	github.com/modern-go/concurrent v0.0.0-20180306012644-bacd9c7ef1dd // indirect
	github.com/modern-go/reflect2 v1.0.2 // indirect
	github.com/niemeyer/pretty v0.0.0-20200227124842-a10e7caefd8e // indirect
	github.com/pelletier/go-toml/v2 v2.0.8 // indirect
	github.com/stretchr/testify v1.8.4 // indirect
	github.com/twitchyliquid64/golang-asm v0.15.1 // indirect
	github.com/ugorji/go/codec v1.2.11 // indirect
	go.uber.org/multierr v1.10.0 // indirect
	golang.org/x/arch v0.3.0 // indirect
	golang.org/x/crypto v0.11.0 // indirect
	golang.org/x/net v0.10.0 // indirect
	golang.org/x/sys v0.10.0 // indirect
	golang.org/x/text v0.11.0 // indirect
	google.golang.org/protobuf v1.30.0 // indirect
	gopkg.in/check.v1 v1.0.0-20200227125254-8fa46927fb4f // indirect
	gopkg.in/yaml.v3 v3.0.1 // indirect
)
